Date,Open,High,Low,Close,Adj Close,Volume
2017-09-13,145.350006,146.289993,145.339996,145.990005,145.990005,4101000
2017-09-14,145.860001,146.380005,145.509995,145.539993,145.539993,3756900
2017-09-15,144.820007,145.169998,144.080002,144.820007,144.820007,7397200
2017-09-18,144.809998,145.479996,144.270004,144.550003,144.550003,3019500
2017-09-19,144.789993,144.979996,144.220001,144.389999,144.389999,3464400
2017-09-20,144.929993,145.880005,144.419998,145.880005,145.880005,5447500
2017-09-21,145.649994,145.889999,145.100006,145.259995,145.259995,2555600
2017-09-22,145.589996,145.589996,144.589996,145.130005,145.130005,2792300
2017-09-25,145.119995,146.029999,144.910004,145.869995,145.869995,5213100
2017-09-26,146.360001,147.419998,145.940002,146.559998,146.559998,4488600
2017-09-27,146.679993,146.899994,145.029999,145.660004,145.660004,3502700
2017-09-28,145.660004,145.860001,144.210007,145.660004,145.660004,2774800
2017-09-29,145.449997,145.690002,144.919998,145.080002,145.080002,2654700
2017-10-02,145.350006,146.869995,145.210007,146.660004,146.660004,2973200
2017-10-03,146.690002,147.199997,146.339996,146.779999,146.779999,2302700
2017-10-04,147.000000,147.020004,146.110001,146.479996,146.479996,2244400
2017-10-05,146.679993,147.539993,146.479996,146.720001,146.720001,2686500
2017-10-06,146.639999,146.850006,146.320007,146.479996,146.479996,2623200
2017-10-09,146.500000,147.789993,146.350006,147.389999,147.389999,2682600
2017-10-10,147.710007,148.949997,147.649994,148.500000,148.500000,4032600
2017-10-11,148.399994,148.470001,147.279999,147.619995,147.619995,3674800
2017-10-12,147.559998,147.889999,146.770004,147.029999,147.029999,3264344
